.. _MPI:          http://www.mpi-forum.org

.. _MPICH:        http://www.mpich.org/

.. _Open MPI:     http://www.open-mpi.org

.. _PETSc:        http://www.mcs.anl.gov/petsc/

.. _SLEPc:        http://www.grycap.upv.es/slepc/

.. _TAO:          http://www.mcs.anl.gov/tao/

.. _Python:       http://www.python.org

.. _NumPy:        http://www.numpy.org

.. _mpi4py:       http://bitbucket.org/mpi4py/mpi4py

.. _petsc4py:     http://bitbucket.org/petsc/petsc4py

.. _slepc4py:     http://bitbucket.org/slepc/slepc4py

.. _CIMEC:        http://www.cimec.org.ar

.. _GRyCAP:       http://www.grycap.upv.es
